^C:\USERS\TEO\DESKTOP\GAME\CLOUDACADEMY\CLOUDACADEMY\MAIN.CPP
/c /I"C:\USERS\TEO\VCPKG\INSTALLED\X86-WINDOWS\INCLUDE" /ZI /JMC /nologo /W3 /WX- /diagnostics:classic /sdl /Od /Oy- /D _MBCS /Gm- /EHsc /RTC1 /MDd /GS /fp:precise /permissive- /Zc:wchar_t /Zc:forScope /Zc:inline /Fo"DEBUG\\" /Fd"DEBUG\VC141.PDB" /Gd /TP /analyze- /FC C:\USERS\TEO\DESKTOP\GAME\CLOUDACADEMY\CLOUDACADEMY\MAIN.CPP
^C:\USERS\TEO\DESKTOP\CLOUDACADEMY\CLOUDACADEMY\CLOUDACADEMY\ERRORS.CPP
/c /I"C:\USERS\TEO\VCPKG\INSTALLED\X86-WINDOWS\INCLUDE" /ZI /JMC /nologo /W3 /WX- /diagnostics:classic /sdl /Od /Oy- /D _MBCS /Gm- /EHsc /RTC1 /MDd /GS /fp:precise /permissive- /Zc:wchar_t /Zc:forScope /Zc:inline /Fo"DEBUG\\" /Fd"DEBUG\VC141.PDB" /Gd /TP /analyze- /FC C:\USERS\TEO\DESKTOP\CLOUDACADEMY\CLOUDACADEMY\CLOUDACADEMY\ERRORS.CPP
^C:\USERS\TEO\DESKTOP\CLOUDACADEMY\CLOUDACADEMY\CLOUDACADEMY\GLSLPROGRAM.CPP
/c /I"C:\USERS\TEO\VCPKG\INSTALLED\X86-WINDOWS\INCLUDE" /ZI /JMC /nologo /W3 /WX- /diagnostics:classic /sdl /Od /Oy- /D _MBCS /Gm- /EHsc /RTC1 /MDd /GS /fp:precise /permissive- /Zc:wchar_t /Zc:forScope /Zc:inline /Fo"DEBUG\\" /Fd"DEBUG\VC141.PDB" /Gd /TP /analyze- /FC C:\USERS\TEO\DESKTOP\CLOUDACADEMY\CLOUDACADEMY\CLOUDACADEMY\GLSLPROGRAM.CPP
^C:\USERS\TEO\DESKTOP\CLOUDACADEMY\CLOUDACADEMY\CLOUDACADEMY\SPRITE.CPP
/c /I"C:\USERS\TEO\VCPKG\INSTALLED\X86-WINDOWS\INCLUDE" /ZI /JMC /nologo /W3 /WX- /diagnostics:classic /sdl /Od /Oy- /D _MBCS /Gm- /EHsc /RTC1 /MDd /GS /fp:precise /permissive- /Zc:wchar_t /Zc:forScope /Zc:inline /Fo"DEBUG\\" /Fd"DEBUG\VC141.PDB" /Gd /TP /analyze- /FC C:\USERS\TEO\DESKTOP\CLOUDACADEMY\CLOUDACADEMY\CLOUDACADEMY\SPRITE.CPP
^C:\USERS\TEO\DESKTOP\CLOUDACADEMY\CLOUDACADEMY\CLOUDACADEMY\MAIN.CPP
/c /I"C:\USERS\TEO\VCPKG\INSTALLED\X86-WINDOWS\INCLUDE" /ZI /JMC /nologo /W3 /WX- /diagnostics:classic /sdl /Od /Oy- /D _MBCS /Gm- /EHsc /RTC1 /MDd /GS /fp:precise /permissive- /Zc:wchar_t /Zc:forScope /Zc:inline /Fo"DEBUG\\" /Fd"DEBUG\VC141.PDB" /Gd /TP /analyze- /FC C:\USERS\TEO\DESKTOP\CLOUDACADEMY\CLOUDACADEMY\CLOUDACADEMY\MAIN.CPP
^C:\USERS\TEO\DESKTOP\CLOUDACADEMY\CLOUDACADEMY\CLOUDACADEMY\MAINGAME.CPP
/c /I"C:\USERS\TEO\VCPKG\INSTALLED\X86-WINDOWS\INCLUDE" /ZI /JMC /nologo /W3 /WX- /diagnostics:classic /sdl /Od /Oy- /D _MBCS /Gm- /EHsc /RTC1 /MDd /GS /fp:precise /permissive- /Zc:wchar_t /Zc:forScope /Zc:inline /Fo"DEBUG\\" /Fd"DEBUG\VC141.PDB" /Gd /TP /analyze- /FC C:\USERS\TEO\DESKTOP\CLOUDACADEMY\CLOUDACADEMY\CLOUDACADEMY\MAINGAME.CPP
