^C:\USERS\TEO\DESKTOP\GAME\CLOUDACADEMY\CLOUDACADEMY\DEBUG\MAIN.OBJ
/OUT:"C:\USERS\TEO\DESKTOP\GAME\CLOUDACADEMY\DEBUG\CLOUDACADEMY.EXE" /INCREMENTAL /NOLOGO /LIBPATH:"C:\USERS\TEO\VCPKG\INSTALLED\X86-WINDOWS\DEBUG\LIB" /LIBPATH:"C:\USERS\TEO\VCPKG\INSTALLED\X86-WINDOWS\DEBUG\LIB\MANUAL-LINK" SDL2.LIB SDL2MAIN.LIB KERNEL32.LIB USER32.LIB GDI32.LIB WINSPOOL.LIB COMDLG32.LIB ADVAPI32.LIB SHELL32.LIB OLE32.LIB OLEAUT32.LIB UUID.LIB ODBC32.LIB ODBCCP32.LIB "C:\USERS\TEO\VCPKG\INSTALLED\X86-WINDOWS\DEBUG\LIB\*.LIB" /MANIFEST /MANIFESTUAC:"level='asInvoker' uiAccess='false'" /manifest:embed /DEBUG:FASTLINK /PDB:"C:\USERS\TEO\DESKTOP\GAME\CLOUDACADEMY\DEBUG\CLOUDACADEMY.PDB" /SUBSYSTEM:CONSOLE /TLBID:1 /DYNAMICBASE /NXCOMPAT /IMPLIB:"C:\USERS\TEO\DESKTOP\GAME\CLOUDACADEMY\DEBUG\CLOUDACADEMY.LIB" /MACHINE:X86 DEBUG\MAIN.OBJ
^C:\USERS\TEO\DESKTOP\CLOUDACADEMY\CLOUDACADEMY\CLOUDACADEMY\DEBUG\MAIN.OBJ
/OUT:"C:\USERS\TEO\DESKTOP\CLOUDACADEMY\CLOUDACADEMY\DEBUG\CLOUDACADEMY.EXE" /INCREMENTAL /NOLOGO /LIBPATH:"C:\USERS\TEO\VCPKG\INSTALLED\X86-WINDOWS\DEBUG\LIB" /LIBPATH:"C:\USERS\TEO\VCPKG\INSTALLED\X86-WINDOWS\DEBUG\LIB\MANUAL-LINK" SDL2.LIB SDL2MAIN.LIB OPENGL32.LIB GLEW32.LIB KERNEL32.LIB USER32.LIB GDI32.LIB WINSPOOL.LIB COMDLG32.LIB ADVAPI32.LIB SHELL32.LIB OLE32.LIB OLEAUT32.LIB UUID.LIB ODBC32.LIB ODBCCP32.LIB "C:\USERS\TEO\VCPKG\INSTALLED\X86-WINDOWS\DEBUG\LIB\*.LIB" /MANIFEST /MANIFESTUAC:"level='asInvoker' uiAccess='false'" /manifest:embed /DEBUG:FASTLINK /PDB:"C:\USERS\TEO\DESKTOP\CLOUDACADEMY\CLOUDACADEMY\DEBUG\CLOUDACADEMY.PDB" /SUBSYSTEM:CONSOLE /TLBID:1 /DYNAMICBASE /NXCOMPAT /IMPLIB:"C:\USERS\TEO\DESKTOP\CLOUDACADEMY\CLOUDACADEMY\DEBUG\CLOUDACADEMY.LIB" /MACHINE:X86 DEBUG\MAIN.OBJ
^C:\USERS\TEO\DESKTOP\CLOUDACADEMY\CLOUDACADEMY\CLOUDACADEMY\DEBUG\ERRORS.OBJ|C:\USERS\TEO\DESKTOP\CLOUDACADEMY\CLOUDACADEMY\CLOUDACADEMY\DEBUG\GLSLPROGRAM.OBJ|C:\USERS\TEO\DESKTOP\CLOUDACADEMY\CLOUDACADEMY\CLOUDACADEMY\DEBUG\MAIN.OBJ|C:\USERS\TEO\DESKTOP\CLOUDACADEMY\CLOUDACADEMY\CLOUDACADEMY\DEBUG\MAINGAME.OBJ|C:\USERS\TEO\DESKTOP\CLOUDACADEMY\CLOUDACADEMY\CLOUDACADEMY\DEBUG\SPRITE.OBJ
/OUT:"C:\USERS\TEO\DESKTOP\CLOUDACADEMY\CLOUDACADEMY\DEBUG\CLOUDACADEMY.EXE" /INCREMENTAL /NOLOGO /LIBPATH:"C:\USERS\TEO\VCPKG\INSTALLED\X86-WINDOWS\DEBUG\LIB" /LIBPATH:"C:\USERS\TEO\VCPKG\INSTALLED\X86-WINDOWS\DEBUG\LIB\MANUAL-LINK" SDL2.LIB SDL2MAIN.LIB OPENGL32.LIB GLEW32.LIB KERNEL32.LIB USER32.LIB GDI32.LIB WINSPOOL.LIB COMDLG32.LIB ADVAPI32.LIB SHELL32.LIB OLE32.LIB OLEAUT32.LIB UUID.LIB ODBC32.LIB ODBCCP32.LIB "C:\USERS\TEO\VCPKG\INSTALLED\X86-WINDOWS\DEBUG\LIB\*.LIB" /MANIFEST /MANIFESTUAC:"level='asInvoker' uiAccess='false'" /manifest:embed /DEBUG:FASTLINK /PDB:"C:\USERS\TEO\DESKTOP\CLOUDACADEMY\CLOUDACADEMY\DEBUG\CLOUDACADEMY.PDB" /SUBSYSTEM:CONSOLE /TLBID:1 /DYNAMICBASE /NXCOMPAT /IMPLIB:"C:\USERS\TEO\DESKTOP\CLOUDACADEMY\CLOUDACADEMY\DEBUG\CLOUDACADEMY.LIB" /MACHINE:X86 DEBUG\ERRORS.OBJDEBUG\GLSLPROGRAM.OBJDEBUG\MAIN.OBJDEBUG\MAINGAME.OBJDEBUG\SPRITE.OBJ
